wave.vcd
$version Generated by VerilatedVcd $end
$date Tue May 23 12:14:10 2023
 $end
$timescale   1ns $end

 $scope module top $end
  $var wire  1 g* clk_i $end
  $var wire  1 o* halt_o $end
  $var wire  1 _* rst_i $end
  $scope module test_top $end
   $var wire  1 Q' ce_wire $end
   $var wire  1 g* clk_i $end
   $var wire  1 +$ ctrl_flush_jump_o $end
   $var wire 32 3$ ctrl_new_pc_o [31:0] $end
   $var wire  6 #$ ctrl_stall_o [5:0] $end
   $var wire 32 3$ exe_jump_addr_o [31:0] $end
   $var wire  1 +$ exe_jump_enable_o $end
   $var wire 32 U% exe_mem_addr_o [31:0] $end
   $var wire 32 !+ exe_mem_data_o [31:0] $end
   $var wire 32 c( exe_mem_mem_addr_o [31:0] $end
   $var wire 32 k( exe_mem_mem_data_o [31:0] $end
   $var wire  4 s( exe_mem_mem_op_o [3:0] $end
   $var wire  1 [( exe_mem_mem_we_o $end
   $var wire  4 )+ exe_mem_op_o [3:0] $end
   $var wire  5 C( exe_mem_reg_waddr_o [4:0] $end
   $var wire 32 S( exe_mem_reg_wdata_o [31:0] $end
   $var wire  1 K( exe_mem_reg_we_o $end
   $var wire  1 w* exe_mem_we_o $end
   $var wire  5 =% exe_reg_waddr_o [4:0] $end
   $var wire 32 M% exe_reg_wdata_o [31:0] $end
   $var wire  1 E% exe_reg_we_o $end
   $var wire  1 ]% exe_stallreq_o $end
   $var wire  1 A' halt_o $end
   $var wire 32 ;( id_exe_inst_addr_o [31:0] $end
   $var wire  1 =) id_exe_inst_is_load_o $end
   $var wire 32 3( id_exe_inst_o [31:0] $end
   $var wire 32 q' id_exe_op1_o [31:0] $end
   $var wire 32 y' id_exe_op2_o [31:0] $end
   $var wire  5 5) id_exe_rd_o [4:0] $end
   $var wire  5 +( id_exe_reg_waddr_o [4:0] $end
   $var wire  1 #( id_exe_reg_we_o $end
   $var wire 32 C$ id_inst_addr_o [31:0] $end
   $var wire 32 ;$ id_inst_o [31:0] $end
   $var wire 32 K$ id_op1_o [31:0] $end
   $var wire 32 S$ id_op2_o [31:0] $end
   $var wire  5 k$ id_reg1_addr_o [4:0] $end
   $var wire  1 {$ id_reg1_re_o $end
   $var wire  5 s$ id_reg2_addr_o [4:0] $end
   $var wire  1 %% id_reg2_re_o $end
   $var wire  5 c$ id_reg_waddr_o [4:0] $end
   $var wire  1 [$ id_reg_we_o $end
   $var wire  1 i' id_stallreq_o $end
   $var wire 32 Y' if_id_inst_addr_o [31:0] $end
   $var wire 32 a' if_id_inst_o [31:0] $end
   $var wire 32 I' if_inst_addr_o [31:0] $end
   $var wire 32 W* if_inst_o [31:0] $end
   $var wire  1 A' mem_halt_o $end
   $var wire 32 }% mem_ram_addr_o [31:0] $end
   $var wire 32 7& mem_ram_data_i [31:0] $end
   $var wire 32 /& mem_ram_data_o [31:0] $end
   $var wire  1 '& mem_ram_w_request_o $end
   $var wire  5 e% mem_reg_waddr_o [4:0] $end
   $var wire 32 u% mem_reg_wdata_o [31:0] $end
   $var wire  1 m% mem_reg_we_o $end
   $var wire  5 {( mem_wb_reg_waddr_o [4:0] $end
   $var wire 32 -) mem_wb_reg_wdata_o [31:0] $end
   $var wire  1 %) mem_wb_reg_we_o $end
   $var wire 32 I' pc_wire [31:0] $end
   $var wire 32 -% reg1_data_o [31:0] $end
   $var wire 32 5% reg2_data_o [31:0] $end
   $var wire  1 _* rst_i $end
   $scope module ctrl0 $end
    $var wire  1 +$ flush_jump_o $end
    $var wire 32 3$ jump_addr_i [31:0] $end
    $var wire  1 +$ jump_enable_i $end
    $var wire 32 3$ new_pc_o [31:0] $end
    $var wire  1 _* rst_i $end
    $var wire  6 #$ stall_o [5:0] $end
    $var wire  1 ]% stallreq_from_exe_i $end
    $var wire  1 i' stallreq_from_id_i $end
   $upscope $end
   $scope module dpram0 $end
    $var wire 32 9' addr4 [31:0] $end
    $var wire 32 }% addr_i [31:0] $end
    $var wire  1 g* clk_i $end
    $var wire 32 /& data_i [31:0] $end
    $var wire 32 7& data_o [31:0] $end
    $var wire  1 Q' inst_ce_i $end
    $var wire 32 W* inst_o [31:0] $end
    $var wire  1 1' mem_e $end
    $var wire 32 I' pc_i [31:0] $end
    $var wire 32 O* rom_addr4 [31:0] $end
    $var wire  1 _* rst_i $end
    $var wire  1 '& we_i $end
   $upscope $end
   $scope module exe0 $end
    $var wire 32 s b_j_jump_addr_o [31:0] $end
    $var wire  1 k b_j_jump_enable_o $end
    $var wire  3 }) funct3 [2:0] $end
    $var wire  7 '* funct7 [6:0] $end
    $var wire 32 ;( inst_addr_i [31:0] $end
    $var wire 32 3( inst_i [31:0] $end
    $var wire 32 3$ jump_addr_o [31:0] $end
    $var wire  1 +$ jump_enable_o $end
    $var wire 32 U% mem_addr_o [31:0] $end
    $var wire 32 !+ mem_data_o [31:0] $end
    $var wire  4 )+ mem_op_o [3:0] $end
    $var wire  1 w* mem_we_o $end
    $var wire 32 q' op1_i [31:0] $end
    $var wire 32 y' op2_i [31:0] $end
    $var wire  7 u) opcode [6:0] $end
    $var wire 32 1+ r_reg_wdata_o [31:0] $end
    $var wire  1 9+ r_reg_we_o $end
    $var wire  5 +( reg_waddr_i [4:0] $end
    $var wire  5 =% reg_waddr_o [4:0] $end
    $var wire 32 M% reg_wdata_o [31:0] $end
    $var wire  1 #( reg_we_i $end
    $var wire  1 E% reg_we_o $end
    $var wire  1 _* rst_i $end
    $var wire 32 o& s_l_mem_addr_o [31:0] $end
    $var wire 32 w& s_l_mem_data_o [31:0] $end
    $var wire  4 !' s_l_mem_op_o [3:0] $end
    $var wire  1 g& s_l_mem_we_o $end
    $var wire 32 Y+ s_l_reg_wdata_o [31:0] $end
    $var wire  1 )' s_l_reg_we_o $end
    $var wire  5 /* shamt [4:0] $end
    $var wire  1 ]% stallreq_o $end
    $scope module exe_type_b_j0 $end
     $var wire  3 }) funct3 [2:0] $end
     $var wire 32 ;( inst_addr_i [31:0] $end
     $var wire 32 3( inst_i [31:0] $end
     $var wire 32 s jump_addr_o [31:0] $end
     $var wire  1 k jump_enable_o $end
     $var wire  1 %! op1_eq_op2 $end
     $var wire 32 q' op1_i [31:0] $end
     $var wire 32 y' op2_i [31:0] $end
     $var wire  7 u) opcode [6:0] $end
     $var wire 32 ;( pc [31:0] $end
     $var wire  1 _* rst_i $end
    $upscope $end
    $scope module exe_type_r0 $end
     $var wire  3 }) funct3 [2:0] $end
     $var wire  7 '* funct7 [6:0] $end
     $var wire 32 3( inst_i [31:0] $end
     $var wire  1 { isType_r $end
     $var wire 32 q' op1_i [31:0] $end
     $var wire 32 y' op2_i [31:0] $end
     $var wire  7 u) opcode [6:0] $end
     $var wire  5 +( reg_waddr_i [4:0] $end
     $var wire 32 1+ reg_wdata_o [31:0] $end
     $var wire  1 9+ reg_we_o $end
     $var wire  1 _* rst_i $end
    $upscope $end
    $scope module exe_type_s_l0 $end
     $var wire  3 }) funct3 [2:0] $end
     $var wire 32 3( inst_i [31:0] $end
     $var wire 32 7* load_addr_offset [31:0] $end
     $var wire 32 o& mem_addr_o [31:0] $end
     $var wire 32 w& mem_data_o [31:0] $end
     $var wire  4 !' mem_op_o [3:0] $end
     $var wire  1 g& mem_we_o $end
     $var wire 32 q' op1_i [31:0] $end
     $var wire 32 y' op2_i [31:0] $end
     $var wire  7 u) opcode [6:0] $end
     $var wire 32 Y+ reg_wdata_o [31:0] $end
     $var wire  1 )' reg_we_o $end
     $var wire  1 _* rst_i $end
     $var wire 32 ?* store_addr_offset [31:0] $end
    $upscope $end
   $upscope $end
   $scope module exe_mem0 $end
    $var wire  1 g* clk_i $end
    $var wire 32 U% mem_addr_i [31:0] $end
    $var wire 32 c( mem_addr_o [31:0] $end
    $var wire 32 !+ mem_data_i [31:0] $end
    $var wire 32 k( mem_data_o [31:0] $end
    $var wire  4 )+ mem_op_i [3:0] $end
    $var wire  4 s( mem_op_o [3:0] $end
    $var wire  1 w* mem_we_i $end
    $var wire  1 [( mem_we_o $end
    $var wire  5 =% reg_waddr_i [4:0] $end
    $var wire  5 C( reg_waddr_o [4:0] $end
    $var wire 32 M% reg_wdata_i [31:0] $end
    $var wire 32 S( reg_wdata_o [31:0] $end
    $var wire  1 E% reg_we_i $end
    $var wire  1 K( reg_we_o $end
    $var wire  1 _* rst_i $end
    $var wire  6 #$ stall_i [5:0] $end
   $upscope $end
   $scope module id0 $end
    $var wire  2 O& come_which1 [1:0] $end
    $var wire  2 W& come_which2 [1:0] $end
    $var wire  5 5) exe_rd_i [4:0] $end
    $var wire  5 =% exe_reg_waddr_i [4:0] $end
    $var wire 32 M% exe_reg_wdata_i [31:0] $end
    $var wire  1 E% exe_reg_we_i $end
    $var wire 32 -% i_op1_o [31:0] $end
    $var wire 32 + i_op2_o [31:0] $end
    $var wire  5 M) i_reg1_raddr_o [4:0] $end
    $var wire  1 I+ i_reg1_re_o $end
    $var wire  5 A+ i_reg2_raddr_o [4:0] $end
    $var wire  1 Q+ i_reg2_re_o $end
    $var wire  5 U) i_reg_waddr_o [4:0] $end
    $var wire  1 I+ i_reg_we_o $end
    $var wire 32 Y' inst_addr_i [31:0] $end
    $var wire 32 C$ inst_addr_o [31:0] $end
    $var wire 32 a' inst_i [31:0] $end
    $var wire 32 ;$ inst_o [31:0] $end
    $var wire  1 i' is_load_hazard $end
    $var wire  5 e% mem_reg_waddr_i [4:0] $end
    $var wire 32 u% mem_reg_wdata_i [31:0] $end
    $var wire  1 m% mem_reg_we_i $end
    $var wire  5 {( mem_wb_reg_waddr_i [4:0] $end
    $var wire 32 -) mem_wb_reg_wdata_i [31:0] $end
    $var wire  1 %) mem_wb_reg_we_i $end
    $var wire 32 K$ op1_o [31:0] $end
    $var wire 32 ?& op1_o_final [31:0] $end
    $var wire 32 S$ op2_o [31:0] $end
    $var wire 32 G& op2_o_final [31:0] $end
    $var wire  7 E) opcode [6:0] $end
    $var wire  1 =) pre_inst_is_load_i $end
    $var wire 32 q# r_op1_o [31:0] $end
    $var wire 32 y# r_op2_o [31:0] $end
    $var wire  5 3 r_reg1_raddr_o [4:0] $end
    $var wire  1 C r_reg1_re_o $end
    $var wire  5 ; r_reg2_raddr_o [4:0] $end
    $var wire  1 K r_reg2_re_o $end
    $var wire  5 [ r_reg_waddr_o [4:0] $end
    $var wire  1 S r_reg_we_o $end
    $var wire  5 U) rd [4:0] $end
    $var wire  5 k$ reg1_raddr_o [4:0] $end
    $var wire 32 -% reg1_rdata_i [31:0] $end
    $var wire  1 {$ reg1_re_o $end
    $var wire  5 s$ reg2_raddr_o [4:0] $end
    $var wire 32 5% reg2_rdata_i [31:0] $end
    $var wire  1 %% reg2_re_o $end
    $var wire  5 c$ reg_waddr_o [4:0] $end
    $var wire  1 [$ reg_we_o $end
    $var wire  5 M) rs1 [4:0] $end
    $var wire  5 ]) rs2 [4:0] $end
    $var wire  1 _* rst_i $end
    $var wire  1 i' stallreq_o $end
    $scope module inst_type_i $end
     $var wire  3 e) funct3 [2:0] $end
     $var wire 32 a' inst_i [31:0] $end
     $var wire 32 -% op1_o [31:0] $end
     $var wire 32 + op2_o [31:0] $end
     $var wire  5 U) rd [4:0] $end
     $var wire  5 M) reg1_raddr_o [4:0] $end
     $var wire 32 -% reg1_rdata_i [31:0] $end
     $var wire  1 I+ reg1_re_o $end
     $var wire  5 A+ reg2_raddr_o [4:0] $end
     $var wire 32 5% reg2_rdata_i [31:0] $end
     $var wire  1 Q+ reg2_re_o $end
     $var wire  5 U) reg_waddr_o [4:0] $end
     $var wire  1 I+ reg_we_o $end
     $var wire  5 M) rs1 [4:0] $end
     $var wire  5 ]) rs2 [4:0] $end
    $upscope $end
    $scope module inst_type_r $end
     $var wire  3 e) funct3 [2:0] $end
     $var wire  7 m) funct7 [6:0] $end
     $var wire 32 a' inst_i [31:0] $end
     $var wire  1 c isType_r $end
     $var wire 32 q# op1_o [31:0] $end
     $var wire 32 y# op2_o [31:0] $end
     $var wire  7 E) opcode [6:0] $end
     $var wire  5 U) rd [4:0] $end
     $var wire  5 3 reg1_raddr_o [4:0] $end
     $var wire 32 -% reg1_rdata_i [31:0] $end
     $var wire  1 C reg1_re_o $end
     $var wire  5 ; reg2_raddr_o [4:0] $end
     $var wire 32 5% reg2_rdata_i [31:0] $end
     $var wire  1 K reg2_re_o $end
     $var wire  5 [ reg_waddr_o [4:0] $end
     $var wire  1 S reg_we_o $end
     $var wire  5 M) rs1 [4:0] $end
     $var wire  5 ]) rs2 [4:0] $end
     $var wire  5 ]) shamt [4:0] $end
    $upscope $end
   $upscope $end
   $scope module id_exe0 $end
    $var wire  1 g* clk_i $end
    $var wire  1 +$ flush_jump_i $end
    $var wire 32 C$ inst_addr_i [31:0] $end
    $var wire 32 ;( inst_addr_o [31:0] $end
    $var wire 32 ;$ inst_i [31:0] $end
    $var wire  1 =) inst_is_load_o $end
    $var wire 32 3( inst_o [31:0] $end
    $var wire 32 K$ op1_i [31:0] $end
    $var wire 32 q' op1_o [31:0] $end
    $var wire 32 S$ op2_i [31:0] $end
    $var wire 32 y' op2_o [31:0] $end
    $var wire  7 _& opcode [6:0] $end
    $var wire  5 5) rd_o [4:0] $end
    $var wire  5 c$ reg_waddr_i [4:0] $end
    $var wire  5 +( reg_waddr_o [4:0] $end
    $var wire  1 [$ reg_we_i $end
    $var wire  1 #( reg_we_o $end
    $var wire  1 _* rst_i $end
    $var wire  6 #$ stall_i [5:0] $end
   $upscope $end
   $scope module if_id0 $end
    $var wire  1 g* clk_i $end
    $var wire  1 +$ flush_jump_i $end
    $var wire 32 I' inst_addr_i [31:0] $end
    $var wire 32 Y' inst_addr_o [31:0] $end
    $var wire 32 W* inst_i [31:0] $end
    $var wire 32 a' inst_o [31:0] $end
    $var wire  1 _* rst_i $end
    $var wire  6 #$ stall_i [5:0] $end
   $upscope $end
   $scope module mem0 $end
    $var wire  1 g* clk_i $end
    $var wire  1 A' halt_o $end
    $var wire 32 c( mem_addr_i [31:0] $end
    $var wire 32 k( mem_data_i [31:0] $end
    $var wire  4 s( mem_op_i [3:0] $end
    $var wire  1 [( mem_we_i $end
    $var wire 32 }% ram_addr_o [31:0] $end
    $var wire  2 G* ram_addr_offset [1:0] $end
    $var wire 32 7& ram_data_i [31:0] $end
    $var wire 32 /& ram_data_o [31:0] $end
    $var wire  1 '& ram_w_request_o $end
    $var wire  5 C( reg_waddr_i [4:0] $end
    $var wire  5 e% reg_waddr_o [4:0] $end
    $var wire 32 S( reg_wdata_i [31:0] $end
    $var wire 32 u% reg_wdata_o [31:0] $end
    $var wire  1 K( reg_we_i $end
    $var wire  1 m% reg_we_o $end
    $var wire  1 _* rst_i $end
   $upscope $end
   $scope module mem_wb0 $end
    $var wire  1 g* clk_i $end
    $var wire  5 e% reg_waddr_i [4:0] $end
    $var wire  5 {( reg_waddr_o [4:0] $end
    $var wire 32 u% reg_wdata_i [31:0] $end
    $var wire 32 -) reg_wdata_o [31:0] $end
    $var wire  1 m% reg_we_i $end
    $var wire  1 %) reg_we_o $end
    $var wire  1 _* rst_i $end
    $var wire  6 #$ stall_i [5:0] $end
   $upscope $end
   $scope module pc_reg0 $end
    $var wire  1 Q' ce_o $end
    $var wire  1 g* clk_i $end
    $var wire  1 +$ flush_jump_i $end
    $var wire 32 3$ new_pc_i [31:0] $end
    $var wire 32 I' pc_o [31:0] $end
    $var wire  1 _* rst_i $end
    $var wire  6 #$ stall_i [5:0] $end
   $upscope $end
   $scope module regfile0 $end
    $var wire  1 g* clk_i $end
    $var wire 32 # i [31:0] $end
    $var wire  5 k$ raddr1_i [4:0] $end
    $var wire  5 s$ raddr2_i [4:0] $end
    $var wire 32 -% rdata1_o [31:0] $end
    $var wire 32 5% rdata2_o [31:0] $end
    $var wire  1 {$ re1_i $end
    $var wire  1 %% re2_i $end
    $var wire 32 -! regs(0) [31:0] $end
    $var wire 32 .! regs(1) [31:0] $end
    $var wire 32 7! regs(10) [31:0] $end
    $var wire 32 8! regs(11) [31:0] $end
    $var wire 32 9! regs(12) [31:0] $end
    $var wire 32 :! regs(13) [31:0] $end
    $var wire 32 ;! regs(14) [31:0] $end
    $var wire 32 <! regs(15) [31:0] $end
    $var wire 32 =! regs(16) [31:0] $end
    $var wire 32 >! regs(17) [31:0] $end
    $var wire 32 ?! regs(18) [31:0] $end
    $var wire 32 @! regs(19) [31:0] $end
    $var wire 32 /! regs(2) [31:0] $end
    $var wire 32 A! regs(20) [31:0] $end
    $var wire 32 B! regs(21) [31:0] $end
    $var wire 32 C! regs(22) [31:0] $end
    $var wire 32 D! regs(23) [31:0] $end
    $var wire 32 E! regs(24) [31:0] $end
    $var wire 32 F! regs(25) [31:0] $end
    $var wire 32 G! regs(26) [31:0] $end
    $var wire 32 H! regs(27) [31:0] $end
    $var wire 32 I! regs(28) [31:0] $end
    $var wire 32 J! regs(29) [31:0] $end
    $var wire 32 0! regs(3) [31:0] $end
    $var wire 32 K! regs(30) [31:0] $end
    $var wire 32 L! regs(31) [31:0] $end
    $var wire 32 1! regs(4) [31:0] $end
    $var wire 32 2! regs(5) [31:0] $end
    $var wire 32 3! regs(6) [31:0] $end
    $var wire 32 4! regs(7) [31:0] $end
    $var wire 32 5! regs(8) [31:0] $end
    $var wire 32 6! regs(9) [31:0] $end
    $var wire  1 _* rst_i $end
    $var wire  5 {( waddr_i [4:0] $end
    $var wire 32 -) wdata_i [31:0] $end
    $var wire  1 %) we_i $end
   $upscope $end
  $upscope $end
 $upscope $end
$enddefinitions $end


#5
b00000000000000000000000000100000 #
b00000000000000000000000000000000 +
b00000 3
b00000 ;
0C
0K
0S
b00000 [
0c
0k
b00000000000000000000000000000000 s
0{
1%!
b00000000000000000000000000000000 -!
b00000000000000000000000000000000 .!
b00000000000000000000000000000000 /!
b00000000000000000000000000000000 0!
b00000000000000000000000000000000 1!
b00000000000000000000000000000000 2!
b00000000000000000000000000000000 3!
b00000000000000000000000000000000 4!
b00000000000000000000000000000000 5!
b00000000000000000000000000000000 6!
b00000000000000000000000000000000 7!
b00000000000000000000000000000000 8!
b00000000000000000000000000000000 9!
b00000000000000000000000000000000 :!
b00000000000000000000000000000000 ;!
b00000000000000000000000000000000 <!
b00000000000000000000000000000000 =!
b00000000000000000000000000000000 >!
b00000000000000000000000000000000 ?!
b00000000000000000000000000000000 @!
b00000000000000000000000000000000 A!
b00000000000000000000000000000000 B!
b00000000000000000000000000000000 C!
b00000000000000000000000000000000 D!
b00000000000000000000000000000000 E!
b00000000000000000000000000000000 F!
b00000000000000000000000000000000 G!
b00000000000000000000000000000000 H!
b00000000000000000000000000000000 I!
b00000000000000000000000000000000 J!
b00000000000000000000000000000000 K!
b00000000000000000000000000000000 L!
b00000000000000000000000000000000 q#
b00000000000000000000000000000000 y#
b000000 #$
0+$
b00000000000000000000000000000000 3$
b00000000000000000000000000010011 ;$
b00000000000000000000000000000000 C$
b00000000000000000000000000000000 K$
b00000000000000000000000000000000 S$
0[$
b00000 c$
b00000 k$
b00000 s$
0{$
0%%
b00000000000000000000000000000000 -%
b00000000000000000000000000000000 5%
b00000 =%
0E%
b00000000000000000000000000000000 M%
b00000000000000000000000000000000 U%
0]%
b00000 e%
1m%
b00000000000000000000000000000000 u%
b00000000000000000000000000000000 }%
0'&
b00000000000000000000000000000000 /&
b00000000000000000000000000000000 7&
b00000000000000000000000000000000 ?&
b00000000000000000000000000000000 G&
b11 O&
b11 W&
b0010011 _&
0g&
b00000000000000000000000000000000 o&
b00000000000000000000000000000000 w&
b0000 !'
0)'
01'
b00000000000000000000000000000000 9'
0A'
b00000000000000000000000000000000 I'
0Q'
b00000000000000000000000000000000 Y'
b00000000000000000000000000000000 a'
0i'
b00000000000000000000000000000000 q'
b00000000000000000000000000000000 y'
0#(
b00000 +(
b00000000000000000000000000000000 3(
b00000000000000000000000000000000 ;(
b00000 C(
0K(
b00000000000000000000000000000000 S(
0[(
b00000000000000000000000000000000 c(
b00000000000000000000000000000000 k(
b0000 s(
b00000 {(
0%)
b00000000000000000000000000000000 -)
b00000 5)
0=)
b0000000 E)
b00000 M)
b00000 U)
b00000 ])
b000 e)
b0000000 m)
b0000000 u)
b000 })
b0000000 '*
b00000 /*
b00000000000000000000000000000000 7*
b00000000000000000000000000000000 ?*
b00 G*
b00000000000000000000000000000000 O*
b00000000000000000000000000000000 W*
1_*
0g*
0o*
0w*
b00000000000000000000000000000000 !+
b0000 )+
b00000000000000000000000000000000 1+
09+
b00000 A+
1I+
0Q+
b00000000000000000000000000000000 Y+
#10
b00000000000000000000000000010011 a'
b00000000000000000000000000010011 3(
1K(
1[(
1%)
b0010011 E)
b0010011 u)
1g*
#15
0g*
#20
1g*
#25
0g*
#30
1g*
#35
0g*
#40
1g*
#45
0g*
#50
1g*
#55
1[$
1{$
0_*
0g*
#60
0[$
0{$
1E%
0m%
1Q'
b00000000000000000000000000000000 a'
1#(
0K(
0[(
b0000000 E)
b00000101000000000000000001101111 W*
1g*
#65
0g*
#70
b00000000000000000000000001010000 +
b00000101000000000000000001101111 ;$
b00000000000000000000000001010000 S$
1[$
0E%
1m%
b00000000000000000000000001010000 G&
b1101111 _&
b00000000000000000000000000000100 I'
b00000101000000000000000001101111 a'
0#(
1K(
0%)
b1101111 E)
b10000 ])
b0000010 m)
b00000000000000000000000000000100 O*
b00110100001000000010111101110011 W*
1g*
#75
0g*
#80
b00000000000000000000001101000010 +
1k
b00000000000000000000000001010000 s
0%!
1+$
b00000000000000000000000001010000 3$
b00000000000000000000000000010011 ;$
b00000000000000000000000000000000 S$
0[$
1E%
b00000000000000000000000000000100 M%
0m%
b00000000000000000000000000000000 G&
b0010011 _&
b00000000000000000000000000001000 I'
b00000000000000000000000000000100 Y'
b00110100001000000010111101110011 a'
b00000000000000000000000001010000 y'
1#(
b00000101000000000000000001101111 3(
0K(
1%)
b1110011 E)
b11110 U)
b00010 ])
b010 e)
b0011010 m)
b1101111 u)
b0000010 '*
b10000 /*
b00000000000000000000000001010000 7*
b00000000000000000000000001000000 ?*
b00000000000000000000000000001000 O*
b00000000100000000000111110010011 W*
1g*
#85
0g*
#90
b00000000000000000000000000000000 +
0k
b00000000000000000000000000000000 s
1%!
0+$
b00000000000000000000000000000000 3$
1[$
1{$
0E%
b00000000000000000000000000000000 M%
1m%
b00000000000000000000000000000100 u%
b00000000000000000000000001010000 I'
b00000000000000000000000000000000 Y'
b00000000000000000000000000010011 a'
b00000000000000000000000000000000 y'
0#(
b00000000000000000000000000010011 3(
1K(
b00000000000000000000000000000100 S(
0%)
b0010011 E)
b00000 U)
b00000 ])
b000 e)
b0000000 m)
b0010011 u)
b0000000 '*
b00000 /*
b00000000000000000000000000000000 7*
b00000000000000000000000000000000 ?*
b00000000000000000000000001010000 O*
b00000000000000000000000010010011 W*
1g*
#95
0g*
#100
b00000000000000000000000010010011 ;$
b00000000000000000000000001010000 C$
b00001 c$
1E%
0m%
b00000000000000000000000000000000 u%
b00 O&
b00000000000000000000000001010100 I'
b00000000000000000000000001010000 Y'
b00000000000000000000000010010011 a'
1#(
0K(
b00000000000000000000000000000000 S(
1%)
b00000000000000000000000000000100 -)
b00001 U)
b00000000000000000000000001010100 O*
b00000000000000000000000100010011 W*
1g*
#105
0g*
#110
b00000000000000000000000100010011 ;$
b00000000000000000000000001010100 C$
b00010 c$
b00001 =%
1m%
b01 O&
b00000000000000000000000001011000 I'
b00000000000000000000000001010100 Y'
b00000000000000000000000100010011 a'
b00001 +(
b00000000000000000000000010010011 3(
b00000000000000000000000001010000 ;(
1K(
0%)
b00000000000000000000000000000000 -)
b00001 5)
b00010 U)
b00000000000000000000000000000001 ?*
b00000000000000000000000001011000 O*
b00000000000000000000000110010011 W*
1g*
#115
0g*
#120
b00000000000000000000000110010011 ;$
b00000000000000000000000001011000 C$
b00011 c$
b00010 =%
b00001 e%
b11 O&
b00000000000000000000000001011100 I'
b00000000000000000000000001011000 Y'
b00000000000000000000000110010011 a'
b00010 +(
b00000000000000000000000100010011 3(
b00000000000000000000000001010100 ;(
b00001 C(
1%)
b00010 5)
b00011 U)
b00000000000000000000000000000010 ?*
b00000000000000000000000001011100 O*
b00000000000000000000001000010011 W*
1g*
#125
0g*
#130
b00000000000000000000001000010011 ;$
b00000000000000000000000001011100 C$
b00100 c$
b00011 =%
b00010 e%
b00000000000000000000000001100000 I'
b00000000000000000000000001011100 Y'
b00000000000000000000001000010011 a'
b00011 +(
b00000000000000000000000110010011 3(
b00000000000000000000000001011000 ;(
b00010 C(
b00001 {(
b00011 5)
b00100 U)
b00000000000000000000000000000011 ?*
b00000000000000000000000001100000 O*
b00000000000000000000001010010011 W*
1g*
#135
0g*
#140
b00000000000000000000001010010011 ;$
b00000000000000000000000001100000 C$
b00101 c$
b00100 =%
b00011 e%
b00000000000000000000000001100100 I'
b00000000000000000000000001100000 Y'
b00000000000000000000001010010011 a'
b00100 +(
b00000000000000000000001000010011 3(
b00000000000000000000000001011100 ;(
b00011 C(
b00010 {(
b00100 5)
b00101 U)
b00000000000000000000000000000100 ?*
b00000000000000000000000001100100 O*
b00000000000000000000001100010011 W*
1g*
#145
0g*
#150
b00000000000000000000001100010011 ;$
b00000000000000000000000001100100 C$
b00110 c$
b00101 =%
b00100 e%
b00000000000000000000000001101000 I'
b00000000000000000000000001100100 Y'
b00000000000000000000001100010011 a'
b00101 +(
b00000000000000000000001010010011 3(
b00000000000000000000000001100000 ;(
b00100 C(
b00011 {(
b00101 5)
b00110 U)
b00000000000000000000000000000101 ?*
b00000000000000000000000001101000 O*
b00000000000000000000001110010011 W*
1g*
#155
0g*
#160
b00000000000000000000001110010011 ;$
b00000000000000000000000001101000 C$
b00111 c$
b00110 =%
b00101 e%
b00000000000000000000000001101100 I'
b00000000000000000000000001101000 Y'
b00000000000000000000001110010011 a'
b00110 +(
b00000000000000000000001100010011 3(
b00000000000000000000000001100100 ;(
b00101 C(
b00100 {(
b00110 5)
b00111 U)
b00000000000000000000000000000110 ?*
b00000000000000000000000001101100 O*
b00000000000000000000010000010011 W*
1g*
#165
0g*
#170
b00000000000000000000010000010011 ;$
b00000000000000000000000001101100 C$
b01000 c$
b00111 =%
b00110 e%
b00000000000000000000000001110000 I'
b00000000000000000000000001101100 Y'
b00000000000000000000010000010011 a'
b00111 +(
b00000000000000000000001110010011 3(
b00000000000000000000000001101000 ;(
b00110 C(
b00101 {(
b00111 5)
b01000 U)
b00000000000000000000000000000111 ?*
b00000000000000000000000001110000 O*
b00000000000000000000010010010011 W*
1g*
#175
0g*
#180
b00000000000000000000010010010011 ;$
b00000000000000000000000001110000 C$
b01001 c$
b01000 =%
b00111 e%
b00000000000000000000000001110100 I'
b00000000000000000000000001110000 Y'
b00000000000000000000010010010011 a'
b01000 +(
b00000000000000000000010000010011 3(
b00000000000000000000000001101100 ;(
b00111 C(
b00110 {(
b01000 5)
b01001 U)
b00000000000000000000000000001000 ?*
b00000000000000000000000001110100 O*
b00000000000000000000010100010011 W*
1g*
#185
0g*
#190
b00000000000000000000010100010011 ;$
b00000000000000000000000001110100 C$
b01010 c$
b01001 =%
b01000 e%
b00000000000000000000000001111000 I'
b00000000000000000000000001110100 Y'
b00000000000000000000010100010011 a'
b01001 +(
b00000000000000000000010010010011 3(
b00000000000000000000000001110000 ;(
b01000 C(
b00111 {(
b01001 5)
b01010 U)
b00000000000000000000000000001001 ?*
b00000000000000000000000001111000 O*
b00000000000000000000010110010011 W*
1g*
#195
0g*
#200
b00000000000000000000010110010011 ;$
b00000000000000000000000001111000 C$
b01011 c$
b01010 =%
b01001 e%
b00000000000000000000000001111100 I'
b00000000000000000000000001111000 Y'
b00000000000000000000010110010011 a'
b01010 +(
b00000000000000000000010100010011 3(
b00000000000000000000000001110100 ;(
b01001 C(
b01000 {(
b01010 5)
b01011 U)
b00000000000000000000000000001010 ?*
b00000000000000000000000001111100 O*
b00000000000000000000011000010011 W*
1g*
#205
0g*
#210
b00000000000000000000011000010011 ;$
b00000000000000000000000001111100 C$
b01100 c$
b01011 =%
b01010 e%
b00000000000000000000000010000000 I'
b00000000000000000000000001111100 Y'
b00000000000000000000011000010011 a'
b01011 +(
b00000000000000000000010110010011 3(
b00000000000000000000000001111000 ;(
b01010 C(
b01001 {(
b01011 5)
b01100 U)
b00000000000000000000000000001011 ?*
b00000000000000000000000010000000 O*
b00000000000000000000011010010011 W*
1g*
#215
0g*
#220
b00000000000000000000011010010011 ;$
b00000000000000000000000010000000 C$
b01101 c$
b01100 =%
b01011 e%
b00000000000000000000000010000100 I'
b00000000000000000000000010000000 Y'
b00000000000000000000011010010011 a'
b01100 +(
b00000000000000000000011000010011 3(
b00000000000000000000000001111100 ;(
b01011 C(
b01010 {(
b01100 5)
b01101 U)
b00000000000000000000000000001100 ?*
b00000000000000000000000010000100 O*
b00000000000000000000011100010011 W*
1g*
#225
0g*
#230
b00000000000000000000011100010011 ;$
b00000000000000000000000010000100 C$
b01110 c$
b01101 =%
b01100 e%
b00000000000000000000000010001000 I'
b00000000000000000000000010000100 Y'
b00000000000000000000011100010011 a'
b01101 +(
b00000000000000000000011010010011 3(
b00000000000000000000000010000000 ;(
b01100 C(
b01011 {(
b01101 5)
b01110 U)
b00000000000000000000000000001101 ?*
b00000000000000000000000010001000 O*
b00000000000000000000011110010011 W*
1g*
#235
0g*
#240
b00000000000000000000011110010011 ;$
b00000000000000000000000010001000 C$
b01111 c$
b01110 =%
b01101 e%
b00000000000000000000000010001100 I'
b00000000000000000000000010001000 Y'
b00000000000000000000011110010011 a'
b01110 +(
b00000000000000000000011100010011 3(
b00000000000000000000000010000100 ;(
b01101 C(
b01100 {(
b01110 5)
b01111 U)
b00000000000000000000000000001110 ?*
b00000000000000000000000010001100 O*
b00000000000000000000100000010011 W*
1g*
#245
0g*
