wave.vcd
$version Generated by VerilatedVcd $end
$date Sun May 21 03:30:34 2023
 $end
$timescale  10s $end

 $scope module top $end
  $var wire  1 :! clk_i $end
  $var wire  1 ;! halt_o $end
  $var wire  1 9! rst_i $end
  $scope module test_top $end
   $var wire  1 & ce_wire $end
   $var wire  1 :! clk_i $end
   $var wire  1 w ctrl_flush_jump_o $end
   $var wire 32 x ctrl_new_pc_o [31:0] $end
   $var wire  6 v ctrl_stall_o [5:0] $end
   $var wire 32 x exe_jump_addr_o [31:0] $end
   $var wire  1 w exe_jump_enable_o $end
   $var wire 32 @! exe_mem_addr_o [31:0] $end
   $var wire 32 A! exe_mem_data_o [31:0] $end
   $var wire 32 4 exe_mem_mem_addr_o [31:0] $end
   $var wire 32 5 exe_mem_mem_data_o [31:0] $end
   $var wire  4 6 exe_mem_mem_op_o [3:0] $end
   $var wire  1 3 exe_mem_mem_we_o $end
   $var wire  4 B! exe_mem_op_o [3:0] $end
   $var wire  5 0 exe_mem_reg_waddr_o [4:0] $end
   $var wire 32 2 exe_mem_reg_wdata_o [31:0] $end
   $var wire  1 1 exe_mem_reg_we_o $end
   $var wire  1 ?! exe_mem_we_o $end
   $var wire  5 %! exe_reg_waddr_o [4:0] $end
   $var wire 32 '! exe_reg_wdata_o [31:0] $end
   $var wire  1 &! exe_reg_we_o $end
   $var wire  1 G! exe_stallreq_o $end
   $var wire  1 $ halt_o $end
   $var wire 32 / id_exe_inst_addr_o [31:0] $end
   $var wire  1 ; id_exe_inst_is_load_o $end
   $var wire 32 . id_exe_inst_o [31:0] $end
   $var wire 32 * id_exe_op1_o [31:0] $end
   $var wire 32 + id_exe_op2_o [31:0] $end
   $var wire  5 : id_exe_rd_o [4:0] $end
   $var wire  5 - id_exe_reg_waddr_o [4:0] $end
   $var wire  1 , id_exe_reg_we_o $end
   $var wire 32 z id_inst_addr_o [31:0] $end
   $var wire 32 y id_inst_o [31:0] $end
   $var wire 32 =! id_op1_o [31:0] $end
   $var wire 32 >! id_op2_o [31:0] $end
   $var wire  5 } id_reg1_addr_o [4:0] $end
   $var wire  1 !! id_reg1_re_o $end
   $var wire  5 ~ id_reg2_addr_o [4:0] $end
   $var wire  1 "! id_reg2_re_o $end
   $var wire  5 | id_reg_waddr_o [4:0] $end
   $var wire  1 { id_reg_we_o $end
   $var wire  1 ) id_stallreq_o $end
   $var wire 32 ' if_id_inst_addr_o [31:0] $end
   $var wire 32 ( if_id_inst_o [31:0] $end
   $var wire 32 % if_inst_addr_o [31:0] $end
   $var wire 32 <! if_inst_o [31:0] $end
   $var wire  1 $ mem_halt_o $end
   $var wire 32 +! mem_ram_addr_o [31:0] $end
   $var wire 32 .! mem_ram_data_i [31:0] $end
   $var wire 32 -! mem_ram_data_o [31:0] $end
   $var wire  1 ,! mem_ram_w_request_o $end
   $var wire  5 (! mem_reg_waddr_o [4:0] $end
   $var wire 32 *! mem_reg_wdata_o [31:0] $end
   $var wire  1 )! mem_reg_we_o $end
   $var wire  5 7 mem_wb_reg_waddr_o [4:0] $end
   $var wire 32 9 mem_wb_reg_wdata_o [31:0] $end
   $var wire  1 8 mem_wb_reg_we_o $end
   $var wire 32 % pc_wire [31:0] $end
   $var wire 32 #! reg1_data_o [31:0] $end
   $var wire 32 $! reg2_data_o [31:0] $end
   $var wire  1 9! rst_i $end
   $scope module ctrl0 $end
    $var wire  1 w flush_jump_o $end
    $var wire 32 x jump_addr_i [31:0] $end
    $var wire  1 w jump_enable_i $end
    $var wire 32 x new_pc_o [31:0] $end
    $var wire  1 9! rst_i $end
    $var wire  6 v stall_o [5:0] $end
    $var wire  1 G! stallreq_from_exe_i $end
    $var wire  1 ) stallreq_from_id_i $end
   $upscope $end
   $scope module dpram0 $end
    $var wire 32 8! addr4 [31:0] $end
    $var wire 32 +! addr_i [31:0] $end
    $var wire  1 :! clk_i $end
    $var wire 32 -! data_i [31:0] $end
    $var wire 32 .! data_o [31:0] $end
    $var wire  1 & inst_ce_i $end
    $var wire 32 <! inst_o [31:0] $end
    $var wire  1 7! mem_e $end
    $var wire 32 % pc_i [31:0] $end
    $var wire 32 U rom_addr4 [31:0] $end
    $var wire  1 9! rst_i $end
    $var wire  1 ,! we_i $end
   $upscope $end
   $scope module exe0 $end
    $var wire 32 O b_j_jump_addr_o [31:0] $end
    $var wire  1 N b_j_jump_enable_o $end
    $var wire  3 K funct3 [2:0] $end
    $var wire  7 L funct7 [6:0] $end
    $var wire 32 / inst_addr_i [31:0] $end
    $var wire 32 . inst_i [31:0] $end
    $var wire 32 x jump_addr_o [31:0] $end
    $var wire  1 w jump_enable_o $end
    $var wire 32 @! mem_addr_o [31:0] $end
    $var wire 32 A! mem_data_o [31:0] $end
    $var wire  4 B! mem_op_o [3:0] $end
    $var wire  1 ?! mem_we_o $end
    $var wire 32 * op1_i [31:0] $end
    $var wire 32 + op2_i [31:0] $end
    $var wire  7 J opcode [6:0] $end
    $var wire 32 E! r_reg_wdata_o [31:0] $end
    $var wire  1 F! r_reg_we_o $end
    $var wire  5 - reg_waddr_i [4:0] $end
    $var wire  5 %! reg_waddr_o [4:0] $end
    $var wire 32 '! reg_wdata_o [31:0] $end
    $var wire  1 , reg_we_i $end
    $var wire  1 &! reg_we_o $end
    $var wire  1 9! rst_i $end
    $var wire 32 3! s_l_mem_addr_o [31:0] $end
    $var wire 32 4! s_l_mem_data_o [31:0] $end
    $var wire  4 5! s_l_mem_op_o [3:0] $end
    $var wire  1 2! s_l_mem_we_o $end
    $var wire 32 K! s_l_reg_wdata_o [31:0] $end
    $var wire  1 6! s_l_reg_we_o $end
    $var wire  5 M shamt [4:0] $end
    $scope module exe_type_b_j0 $end
     $var wire  3 K funct3 [2:0] $end
     $var wire 32 / inst_addr_i [31:0] $end
     $var wire 32 . inst_i [31:0] $end
     $var wire 32 O jump_addr_o [31:0] $end
     $var wire  1 N jump_enable_o $end
     $var wire  1 S op1_eq_op2 $end
     $var wire 32 * op1_i [31:0] $end
     $var wire 32 + op2_i [31:0] $end
     $var wire  7 J opcode [6:0] $end
     $var wire 32 / pc [31:0] $end
     $var wire  1 9! rst_i $end
    $upscope $end
    $scope module exe_type_r0 $end
     $var wire  3 K funct3 [2:0] $end
     $var wire  7 L funct7 [6:0] $end
     $var wire 32 . inst_i [31:0] $end
     $var wire  1 P isType_r $end
     $var wire 32 * op1_i [31:0] $end
     $var wire 32 + op2_i [31:0] $end
     $var wire  7 J opcode [6:0] $end
     $var wire  5 - reg_waddr_i [4:0] $end
     $var wire 32 E! reg_wdata_o [31:0] $end
     $var wire  1 F! reg_we_o $end
     $var wire  1 9! rst_i $end
    $upscope $end
    $scope module exe_type_s_l0 $end
     $var wire  3 K funct3 [2:0] $end
     $var wire 32 . inst_i [31:0] $end
     $var wire 32 Q load_addr_offset [31:0] $end
     $var wire 32 3! mem_addr_o [31:0] $end
     $var wire 32 4! mem_data_o [31:0] $end
     $var wire  4 5! mem_op_o [3:0] $end
     $var wire  1 2! mem_we_o $end
     $var wire 32 * op1_i [31:0] $end
     $var wire 32 + op2_i [31:0] $end
     $var wire  7 J opcode [6:0] $end
     $var wire 32 K! reg_wdata_o [31:0] $end
     $var wire  1 6! reg_we_o $end
     $var wire  1 9! rst_i $end
     $var wire 32 R store_addr_offset [31:0] $end
    $upscope $end
   $upscope $end
   $scope module exe_mem0 $end
    $var wire  1 :! clk_i $end
    $var wire 32 @! mem_addr_i [31:0] $end
    $var wire 32 4 mem_addr_o [31:0] $end
    $var wire 32 A! mem_data_i [31:0] $end
    $var wire 32 5 mem_data_o [31:0] $end
    $var wire  4 B! mem_op_i [3:0] $end
    $var wire  4 6 mem_op_o [3:0] $end
    $var wire  1 ?! mem_we_i $end
    $var wire  1 3 mem_we_o $end
    $var wire  5 %! reg_waddr_i [4:0] $end
    $var wire  5 0 reg_waddr_o [4:0] $end
    $var wire 32 '! reg_wdata_i [31:0] $end
    $var wire 32 2 reg_wdata_o [31:0] $end
    $var wire  1 &! reg_we_i $end
    $var wire  1 1 reg_we_o $end
    $var wire  1 9! rst_i $end
    $var wire  6 v stall_i [5:0] $end
   $upscope $end
   $scope module id0 $end
    $var wire  5 : exe_rd_i [4:0] $end
    $var wire  5 %! exe_reg_waddr_i [4:0] $end
    $var wire 32 '! exe_reg_wdata_i [31:0] $end
    $var wire  1 &! exe_reg_we_i $end
    $var wire 32 #! i_op1_o [31:0] $end
    $var wire 32 > i_op2_o [31:0] $end
    $var wire  5 = i_reg1_raddr_o [4:0] $end
    $var wire  1 I! i_reg1_re_o $end
    $var wire  5 H! i_reg2_raddr_o [4:0] $end
    $var wire  1 J! i_reg2_re_o $end
    $var wire  5 ? i_reg_waddr_o [4:0] $end
    $var wire  1 I! i_reg_we_o $end
    $var wire 32 ' inst_addr_i [31:0] $end
    $var wire 32 z inst_addr_o [31:0] $end
    $var wire 32 ( inst_i [31:0] $end
    $var wire 32 y inst_o [31:0] $end
    $var wire  1 ) is_load_hazard $end
    $var wire  5 (! mem_reg_waddr_i [4:0] $end
    $var wire 32 *! mem_reg_wdata_i [31:0] $end
    $var wire  1 )! mem_reg_we_i $end
    $var wire  5 7 mem_wb_reg_waddr_i [4:0] $end
    $var wire 32 9 mem_wb_reg_wdata_i [31:0] $end
    $var wire  1 8 mem_wb_reg_we_i $end
    $var wire 32 =! op1_o [31:0] $end
    $var wire 32 /! op1_o_final [31:0] $end
    $var wire 32 >! op2_o [31:0] $end
    $var wire 32 0! op2_o_final [31:0] $end
    $var wire  7 < opcode [6:0] $end
    $var wire  1 ; pre_inst_is_load_i $end
    $var wire 32 C! r_op1_o [31:0] $end
    $var wire 32 D! r_op2_o [31:0] $end
    $var wire  5 @ r_reg1_raddr_o [4:0] $end
    $var wire  1 B r_reg1_re_o $end
    $var wire  5 A r_reg2_raddr_o [4:0] $end
    $var wire  1 C r_reg2_re_o $end
    $var wire  5 E r_reg_waddr_o [4:0] $end
    $var wire  1 D r_reg_we_o $end
    $var wire  5 ? rd [4:0] $end
    $var wire  5 } reg1_raddr_o [4:0] $end
    $var wire 32 #! reg1_rdata_i [31:0] $end
    $var wire  1 !! reg1_re_o $end
    $var wire  5 ~ reg2_raddr_o [4:0] $end
    $var wire 32 $! reg2_rdata_i [31:0] $end
    $var wire  1 "! reg2_re_o $end
    $var wire  5 | reg_waddr_o [4:0] $end
    $var wire  1 { reg_we_o $end
    $var wire  5 = rs1 [4:0] $end
    $var wire  5 F rs2 [4:0] $end
    $var wire  1 9! rst_i $end
    $var wire  1 ) stallreq_o $end
    $scope module inst_type_i $end
     $var wire  3 G funct3 [2:0] $end
     $var wire 32 ( inst_i [31:0] $end
     $var wire 32 #! op1_o [31:0] $end
     $var wire 32 > op2_o [31:0] $end
     $var wire  5 ? rd [4:0] $end
     $var wire  5 = reg1_raddr_o [4:0] $end
     $var wire 32 #! reg1_rdata_i [31:0] $end
     $var wire  1 I! reg1_re_o $end
     $var wire  5 H! reg2_raddr_o [4:0] $end
     $var wire 32 $! reg2_rdata_i [31:0] $end
     $var wire  1 J! reg2_re_o $end
     $var wire  5 ? reg_waddr_o [4:0] $end
     $var wire  1 I! reg_we_o $end
     $var wire  5 = rs1 [4:0] $end
     $var wire  5 F rs2 [4:0] $end
    $upscope $end
    $scope module inst_type_r $end
     $var wire  3 G funct3 [2:0] $end
     $var wire  7 H funct7 [6:0] $end
     $var wire 32 ( inst_i [31:0] $end
     $var wire  1 I isType_r $end
     $var wire 32 C! op1_o [31:0] $end
     $var wire 32 D! op2_o [31:0] $end
     $var wire  7 < opcode [6:0] $end
     $var wire  5 ? rd [4:0] $end
     $var wire  5 @ reg1_raddr_o [4:0] $end
     $var wire 32 #! reg1_rdata_i [31:0] $end
     $var wire  1 B reg1_re_o $end
     $var wire  5 A reg2_raddr_o [4:0] $end
     $var wire 32 $! reg2_rdata_i [31:0] $end
     $var wire  1 C reg2_re_o $end
     $var wire  5 E reg_waddr_o [4:0] $end
     $var wire  1 D reg_we_o $end
     $var wire  5 = rs1 [4:0] $end
     $var wire  5 F rs2 [4:0] $end
     $var wire  5 F shamt [4:0] $end
    $upscope $end
   $upscope $end
   $scope module id_exe0 $end
    $var wire  1 :! clk_i $end
    $var wire  1 w flush_jump_i $end
    $var wire 32 z inst_addr_i [31:0] $end
    $var wire 32 / inst_addr_o [31:0] $end
    $var wire 32 y inst_i [31:0] $end
    $var wire  1 ; inst_is_load_o $end
    $var wire 32 . inst_o [31:0] $end
    $var wire 32 =! op1_i [31:0] $end
    $var wire 32 * op1_o [31:0] $end
    $var wire 32 >! op2_i [31:0] $end
    $var wire 32 + op2_o [31:0] $end
    $var wire  7 1! opcode [6:0] $end
    $var wire  5 : rd_o [4:0] $end
    $var wire  5 | reg_waddr_i [4:0] $end
    $var wire  5 - reg_waddr_o [4:0] $end
    $var wire  1 { reg_we_i $end
    $var wire  1 , reg_we_o $end
    $var wire  1 9! rst_i $end
    $var wire  6 v stall_i [5:0] $end
   $upscope $end
   $scope module if_id0 $end
    $var wire  1 :! clk_i $end
    $var wire  1 w flush_jump_i $end
    $var wire 32 % inst_addr_i [31:0] $end
    $var wire 32 ' inst_addr_o [31:0] $end
    $var wire 32 <! inst_i [31:0] $end
    $var wire 32 ( inst_o [31:0] $end
    $var wire  1 9! rst_i $end
    $var wire  6 v stall_i [5:0] $end
   $upscope $end
   $scope module mem0 $end
    $var wire  1 :! clk_i $end
    $var wire  1 $ halt_o $end
    $var wire 32 4 mem_addr_i [31:0] $end
    $var wire 32 5 mem_data_i [31:0] $end
    $var wire  4 6 mem_op_i [3:0] $end
    $var wire  1 3 mem_we_i $end
    $var wire 32 +! ram_addr_o [31:0] $end
    $var wire  2 T ram_addr_offset [1:0] $end
    $var wire 32 .! ram_data_i [31:0] $end
    $var wire 32 -! ram_data_o [31:0] $end
    $var wire  1 ,! ram_w_request_o $end
    $var wire  5 0 reg_waddr_i [4:0] $end
    $var wire  5 (! reg_waddr_o [4:0] $end
    $var wire 32 2 reg_wdata_i [31:0] $end
    $var wire 32 *! reg_wdata_o [31:0] $end
    $var wire  1 1 reg_we_i $end
    $var wire  1 )! reg_we_o $end
    $var wire  1 9! rst_i $end
   $upscope $end
   $scope module mem_wb0 $end
    $var wire  1 :! clk_i $end
    $var wire  5 (! reg_waddr_i [4:0] $end
    $var wire  5 7 reg_waddr_o [4:0] $end
    $var wire 32 *! reg_wdata_i [31:0] $end
    $var wire 32 9 reg_wdata_o [31:0] $end
    $var wire  1 )! reg_we_i $end
    $var wire  1 8 reg_we_o $end
    $var wire  1 9! rst_i $end
    $var wire  6 v stall_i [5:0] $end
   $upscope $end
   $scope module pc_reg0 $end
    $var wire  1 & ce_o $end
    $var wire  1 :! clk_i $end
    $var wire  1 w flush_jump_i $end
    $var wire 32 x new_pc_i [31:0] $end
    $var wire 32 % pc_o [31:0] $end
    $var wire  1 9! rst_i $end
    $var wire  6 v stall_i [5:0] $end
   $upscope $end
   $scope module regfile0 $end
    $var wire  1 :! clk_i $end
    $var wire 32 # i [31:0] $end
    $var wire  5 } raddr1_i [4:0] $end
    $var wire  5 ~ raddr2_i [4:0] $end
    $var wire 32 #! rdata1_o [31:0] $end
    $var wire 32 $! rdata2_o [31:0] $end
    $var wire  1 !! re1_i $end
    $var wire  1 "! re2_i $end
    $var wire 32 V regs(0) [31:0] $end
    $var wire 32 W regs(1) [31:0] $end
    $var wire 32 ` regs(10) [31:0] $end
    $var wire 32 a regs(11) [31:0] $end
    $var wire 32 b regs(12) [31:0] $end
    $var wire 32 c regs(13) [31:0] $end
    $var wire 32 d regs(14) [31:0] $end
    $var wire 32 e regs(15) [31:0] $end
    $var wire 32 f regs(16) [31:0] $end
    $var wire 32 g regs(17) [31:0] $end
    $var wire 32 h regs(18) [31:0] $end
    $var wire 32 i regs(19) [31:0] $end
    $var wire 32 X regs(2) [31:0] $end
    $var wire 32 j regs(20) [31:0] $end
    $var wire 32 k regs(21) [31:0] $end
    $var wire 32 l regs(22) [31:0] $end
    $var wire 32 m regs(23) [31:0] $end
    $var wire 32 n regs(24) [31:0] $end
    $var wire 32 o regs(25) [31:0] $end
    $var wire 32 p regs(26) [31:0] $end
    $var wire 32 q regs(27) [31:0] $end
    $var wire 32 r regs(28) [31:0] $end
    $var wire 32 s regs(29) [31:0] $end
    $var wire 32 Y regs(3) [31:0] $end
    $var wire 32 t regs(30) [31:0] $end
    $var wire 32 u regs(31) [31:0] $end
    $var wire 32 Z regs(4) [31:0] $end
    $var wire 32 [ regs(5) [31:0] $end
    $var wire 32 \ regs(6) [31:0] $end
    $var wire 32 ] regs(7) [31:0] $end
    $var wire 32 ^ regs(8) [31:0] $end
    $var wire 32 _ regs(9) [31:0] $end
    $var wire  1 9! rst_i $end
    $var wire  5 7 waddr_i [4:0] $end
    $var wire 32 9 wdata_i [31:0] $end
    $var wire  1 8 we_i $end
   $upscope $end
  $upscope $end
 $upscope $end
$enddefinitions $end


#5
b00000000000000000000000000100000 #
0$
b00000000000000000000000000000000 %
0&
b00000000000000000000000000000000 '
b00000000000000000000000000000000 (
0)
b00000000000000000000000000000000 *
b00000000000000000000000000000000 +
0,
b00000 -
b00000000000000000000000000000000 .
b00000000000000000000000000000000 /
b00000 0
01
b00000000000000000000000000000000 2
03
b00000000000000000000000000000000 4
b00000000000000000000000000000000 5
b0000 6
b00000 7
08
b00000000000000000000000000000000 9
b00000 :
0;
b0000000 <
b00000 =
b00000000000000000000000000000000 >
b00000 ?
b00000 @
b00000 A
0B
0C
0D
b00000 E
b00000 F
b000 G
b0000000 H
0I
b0000000 J
b000 K
b0000000 L
b00000 M
0N
b00000000000000000000000000000000 O
0P
b00000000000000000000000000000000 Q
b00000000000000000000000000000000 R
1S
b00 T
b00000000000000000000000000000000 U
b00000000000000000000000000000000 V
b00000000000000000000000000000000 W
b00000000000000000000000000000000 X
b00000000000000000000000000000000 Y
b00000000000000000000000000000000 Z
b00000000000000000000000000000000 [
b00000000000000000000000000000000 \
b00000000000000000000000000000000 ]
b00000000000000000000000000000000 ^
b00000000000000000000000000000000 _
b00000000000000000000000000000000 `
b00000000000000000000000000000000 a
b00000000000000000000000000000000 b
b00000000000000000000000000000000 c
b00000000000000000000000000000000 d
b00000000000000000000000000000000 e
b00000000000000000000000000000000 f
b00000000000000000000000000000000 g
b00000000000000000000000000000000 h
b00000000000000000000000000000000 i
b00000000000000000000000000000000 j
b00000000000000000000000000000000 k
b00000000000000000000000000000000 l
b00000000000000000000000000000000 m
b00000000000000000000000000000000 n
b00000000000000000000000000000000 o
b00000000000000000000000000000000 p
b00000000000000000000000000000000 q
b00000000000000000000000000000000 r
b00000000000000000000000000000000 s
b00000000000000000000000000000000 t
b00000000000000000000000000000000 u
b000000 v
0w
b00000000000000000000000000000000 x
b00000000000000000000000000010011 y
b00000000000000000000000000000000 z
0{
b00000 |
b00000 }
b00000 ~
0!!
0"!
b00000000000000000000000000000000 #!
b00000000000000000000000000000000 $!
b00000 %!
0&!
b00000000000000000000000000000000 '!
b00000 (!
1)!
b00000000000000000000000000000000 *!
b00000000000000000000000000000000 +!
0,!
b00000000000000000000000000000000 -!
b00000000000000000000000000000000 .!
b00000000000000000000000000000000 /!
b00000000000000000000000000000000 0!
b0010011 1!
02!
b00000000000000000000000000000000 3!
b00000000000000000000000000000000 4!
b0000 5!
06!
07!
b00000000000000000000000000000000 8!
19!
0:!
0;!
b00000000000000000000000000000000 <!
b00000000000000000000000000000000 =!
b00000000000000000000000000000000 >!
0?!
b00000000000000000000000000000000 @!
b00000000000000000000000000000000 A!
b0000 B!
b00000000000000000000000000000000 C!
b00000000000000000000000000000000 D!
b00000000000000000000000000000000 E!
0F!
0G!
b00000 H!
1I!
0J!
b00000000000000000000000000000000 K!
#10
b00000000000000000000000000010011 (
b00000000000000000000000000010011 .
11
18
b0010011 <
b0010011 J
1:!
#15
0:!
#20
1:!
#25
0:!
#30
1:!
#35
0:!
#40
1:!
#45
0:!
#50
1:!
#55
1{
1!!
09!
0:!
#60
1&
b00000000000000000000000000000000 (
1,
01
b0000000 <
0{
0!!
1&!
0)!
1:!
b00000101000000000000000001101111 <!
#65
0:!
#70
b00000000000000000000000000000100 %
b00000101000000000000000001101111 (
0,
11
08
b1101111 <
b00000000000000000000000001010000 >
b10000 F
b0000010 H
b00000000000000000000000000000100 U
b00000101000000000000000001101111 y
1{
0&!
1)!
b00000000000000000000000001010000 0!
b1101111 1!
1:!
b00110100001000000010111101110011 <!
b00000000000000000000000001010000 >!
#75
0:!
#80
b00000000000000000000000000001000 %
b00000000000000000000000000000100 '
b00110100001000000010111101110011 (
b00000000000000000000000001010000 +
1,
b00000101000000000000000001101111 .
01
18
b1110011 <
b00000000000000000000001101000010 >
b11110 ?
b00010 F
b010 G
b0011010 H
b1101111 J
b0000010 L
b10000 M
1N
b00000000000000000000000001010000 O
b00000000000000000000000001010000 Q
b00000000000000000000000001000000 R
0S
b00000000000000000000000000001000 U
1w
b00000000000000000000000001010000 x
b00000000000000000000000000010011 y
0{
1&!
b00000000000000000000000000000100 '!
0)!
b00000000000000000000000000000000 0!
b0010011 1!
1:!
b00000000100000000000111110010011 <!
b00000000000000000000000000000000 >!
#85
0:!
#90
b00000000000000000000000001010000 %
b00000000000000000000000000000000 '
b00000000000000000000000000010011 (
b00000000000000000000000000000000 +
0,
b00000000000000000000000000010011 .
11
b00000000000000000000000000000100 2
08
b0010011 <
b00000000000000000000000000000000 >
b00000 ?
b00000 F
b000 G
b0000000 H
b0010011 J
b0000000 L
b00000 M
0N
b00000000000000000000000000000000 O
b00000000000000000000000000000000 Q
b00000000000000000000000000000000 R
1S
b00000000000000000000000001010000 U
0w
b00000000000000000000000000000000 x
1{
1!!
0&!
b00000000000000000000000000000000 '!
1)!
b00000000000000000000000000000100 *!
1:!
b00000000000000000000000010010011 <!
b00000000000000000000000000000100 =!
#95
0:!
#100
b00000000000000000000000001010100 %
b00000000000000000000000001010000 '
b00000000000000000000000010010011 (
b00000000000000000000000000000100 *
1,
01
b00000000000000000000000000000000 2
18
b00000000000000000000000000000100 9
b00001 ?
0S
b00000000000000000000000001010100 U
b00000000000000000000000010010011 y
b00000000000000000000000001010000 z
b00001 |
1&!
b00000000000000000000000000000100 '!
0)!
b00000000000000000000000000000000 *!
1:!
b00000000000000000000000100010011 <!
#105
0:!
#110
b00000000000000000000000001011000 %
b00000000000000000000000001010100 '
b00000000000000000000000100010011 (
b00001 -
b00000000000000000000000010010011 .
b00000000000000000000000001010000 /
11
b00000000000000000000000000000100 2
08
b00000000000000000000000000000000 9
b00010 ?
b00000000000000000000000000000001 R
b00000000000000000000000001011000 U
b00000000000000000000000100010011 y
b00000000000000000000000001010100 z
b00010 |
b00001 %!
1)!
b00000000000000000000000000000100 *!
1:!
b00000000000000000000000110010011 <!
#115
0:!
#120
b00000000000000000000000001011100 %
b00000000000000000000000001011000 '
b00000000000000000000000110010011 (
b00010 -
b00000000000000000000000100010011 .
b00000000000000000000000001010100 /
b00001 0
18
b00000000000000000000000000000100 9
b00011 ?
b00000000000000000000000000000010 R
b00000000000000000000000001011100 U
b00000000000000000000000110010011 y
b00000000000000000000000001011000 z
b00011 |
b00010 %!
b00001 (!
1:!
b00000000000000000000001000010011 <!
b00000000000000000000000000000000 =!
#125
0:!
#130
b00000000000000000000000001100000 %
b00000000000000000000000001011100 '
b00000000000000000000001000010011 (
b00000000000000000000000000000000 *
b00011 -
b00000000000000000000000110010011 .
b00000000000000000000000001011000 /
b00010 0
b00001 7
b00100 ?
b00000000000000000000000000000011 R
1S
b00000000000000000000000001100000 U
b00000000000000000000001000010011 y
b00000000000000000000000001011100 z
b00100 |
b00011 %!
b00000000000000000000000000000000 '!
b00010 (!
1:!
b00000000000000000000001010010011 <!
#135
0:!
#140
b00000000000000000000000001100100 %
b00000000000000000000000001100000 '
b00000000000000000000001010010011 (
b00100 -
b00000000000000000000001000010011 .
b00000000000000000000000001011100 /
b00011 0
b00000000000000000000000000000000 2
b00010 7
b00101 ?
b00000000000000000000000000000100 R
b00000000000000000000000001100100 U
b00000000000000000000000000000100 W
b00000000000000000000001010010011 y
b00000000000000000000000001100000 z
b00101 |
b00100 %!
b00011 (!
b00000000000000000000000000000000 *!
1:!
b00000000000000000000001100010011 <!
#145
0:!
#150
b00000000000000000000000001101000 %
b00000000000000000000000001100100 '
b00000000000000000000001100010011 (
b00101 -
b00000000000000000000001010010011 .
b00000000000000000000000001100000 /
b00100 0
b00011 7
b00000000000000000000000000000000 9
b00110 ?
b00000000000000000000000000000101 R
b00000000000000000000000001101000 U
b00000000000000000000000000000100 X
b00000000000000000000001100010011 y
b00000000000000000000000001100100 z
b00110 |
b00101 %!
b00100 (!
1:!
b00000000000000000000001110010011 <!
#155
0:!
#160
b00000000000000000000000001101100 %
b00000000000000000000000001101000 '
b00000000000000000000001110010011 (
b00110 -
b00000000000000000000001100010011 .
b00000000000000000000000001100100 /
b00101 0
b00100 7
b00111 ?
b00000000000000000000000000000110 R
b00000000000000000000000001101100 U
b00000000000000000000001110010011 y
b00000000000000000000000001101000 z
b00111 |
b00110 %!
b00101 (!
1:!
b00000000000000000000010000010011 <!
#165
0:!
#170
b00000000000000000000000001110000 %
b00000000000000000000000001101100 '
b00000000000000000000010000010011 (
b00111 -
b00000000000000000000001110010011 .
b00000000000000000000000001101000 /
b00110 0
b00101 7
b01000 ?
b00000000000000000000000000000111 R
b00000000000000000000000001110000 U
b00000000000000000000010000010011 y
b00000000000000000000000001101100 z
b01000 |
b00111 %!
b00110 (!
1:!
b00000000000000000000010010010011 <!
#175
0:!
#180
b00000000000000000000000001110100 %
b00000000000000000000000001110000 '
b00000000000000000000010010010011 (
b01000 -
b00000000000000000000010000010011 .
b00000000000000000000000001101100 /
b00111 0
b00110 7
b01001 ?
b00000000000000000000000000001000 R
b00000000000000000000000001110100 U
b00000000000000000000010010010011 y
b00000000000000000000000001110000 z
b01001 |
b01000 %!
b00111 (!
1:!
b00000000000000000000010100010011 <!
#185
0:!
#190
b00000000000000000000000001111000 %
b00000000000000000000000001110100 '
b00000000000000000000010100010011 (
b01001 -
b00000000000000000000010010010011 .
b00000000000000000000000001110000 /
b01000 0
b00111 7
b01010 ?
b00000000000000000000000000001001 R
b00000000000000000000000001111000 U
b00000000000000000000010100010011 y
b00000000000000000000000001110100 z
b01010 |
b01001 %!
b01000 (!
1:!
b00000000000000000000010110010011 <!
#195
0:!
#200
b00000000000000000000000001111100 %
b00000000000000000000000001111000 '
b00000000000000000000010110010011 (
b01010 -
b00000000000000000000010100010011 .
b00000000000000000000000001110100 /
b01001 0
b01000 7
b01011 ?
b00000000000000000000000000001010 R
b00000000000000000000000001111100 U
b00000000000000000000010110010011 y
b00000000000000000000000001111000 z
b01011 |
b01010 %!
b01001 (!
1:!
b00000000000000000000011000010011 <!
#205
0:!
#210
b00000000000000000000000010000000 %
b00000000000000000000000001111100 '
b00000000000000000000011000010011 (
b01011 -
b00000000000000000000010110010011 .
b00000000000000000000000001111000 /
b01010 0
b01001 7
b01100 ?
b00000000000000000000000000001011 R
b00000000000000000000000010000000 U
b00000000000000000000011000010011 y
b00000000000000000000000001111100 z
b01100 |
b01011 %!
b01010 (!
1:!
b00000000000000000000011010010011 <!
#215
0:!
#220
b00000000000000000000000010000100 %
b00000000000000000000000010000000 '
b00000000000000000000011010010011 (
b01100 -
b00000000000000000000011000010011 .
b00000000000000000000000001111100 /
b01011 0
b01010 7
b01101 ?
b00000000000000000000000000001100 R
b00000000000000000000000010000100 U
b00000000000000000000011010010011 y
b00000000000000000000000010000000 z
b01101 |
b01100 %!
b01011 (!
1:!
b00000000000000000000011100010011 <!
#225
0:!
#230
b00000000000000000000000010001000 %
b00000000000000000000000010000100 '
b00000000000000000000011100010011 (
b01101 -
b00000000000000000000011010010011 .
b00000000000000000000000010000000 /
b01100 0
b01011 7
b01110 ?
b00000000000000000000000000001101 R
b00000000000000000000000010001000 U
b00000000000000000000011100010011 y
b00000000000000000000000010000100 z
b01110 |
b01101 %!
b01100 (!
1:!
b00000000000000000000011110010011 <!
#235
0:!
#240
b00000000000000000000000010001100 %
b00000000000000000000000010001000 '
b00000000000000000000011110010011 (
b01110 -
b00000000000000000000011100010011 .
b00000000000000000000000010000100 /
b01101 0
b01100 7
b01111 ?
b00000000000000000000000000001110 R
b00000000000000000000000010001100 U
b00000000000000000000011110010011 y
b00000000000000000000000010001000 z
b01111 |
b01110 %!
b01101 (!
1:!
b00000000000000000000100000010011 <!
#245
0:!
#250
b00000000000000000000000010010000 %
b00000000000000000000000010001100 '
b00000000000000000000100000010011 (
b01111 -
b00000000000000000000011110010011 .
b00000000000000000000000010001000 /
b01110 0
b01101 7
b10000 ?
b00000000000000000000000000001111 R
b00000000000000000000000010010000 U
b00000000000000000000100000010011 y
b00000000000000000000000010001100 z
b10000 |
b01111 %!
b01110 (!
1:!
b00000000000000000000100010010011 <!
#255
0:!
#260
b00000000000000000000000010010100 %
b00000000000000000000000010010000 '
b00000000000000000000100010010011 (
b10000 -
b00000000000000000000100000010011 .
b00000000000000000000000010001100 /
b01111 0
b01110 7
b10001 ?
b00000000000000000000000000010000 R
b00000000000000000000000010010100 U
b00000000000000000000100010010011 y
b00000000000000000000000010010000 z
b10001 |
b10000 %!
b01111 (!
1:!
b00000000000000000000100100010011 <!
#265
0:!
#270
b00000000000000000000000010011000 %
b00000000000000000000000010010100 '
b00000000000000000000100100010011 (
b10001 -
b00000000000000000000100010010011 .
b00000000000000000000000010010000 /
b10000 0
b01111 7
b10010 ?
b00000000000000000000000000010001 R
b00000000000000000000000010011000 U
b00000000000000000000100100010011 y
b00000000000000000000000010010100 z
b10010 |
b10001 %!
b10000 (!
1:!
b00000000000000000000100110010011 <!
#275
0:!
